Get and Visualize Stock Data
…
Get and Visualize Stock Data

library(rstatatools)
#> Registered S3 method overwritten by 'quantmod':
#>   method            from
#>   as.zoo.data.frame zoo

Get

cntrade(1, "stock")
#> # A tibble: 7,300 x 12
#>    date       code  name  close  high   low  open `yesterday clos
#>    <date>     <chr> <chr> <dbl> <dbl> <dbl> <dbl>            <dbl>
#>  1 2020-12-16 0000   19.0  19.1  18.6  18.8             18.7
#>  2 2020-12-15 0000   18.7  18.8  18.2  18.8             18.9
#>  3 2020-12-14 0000   18.9  19.1  18.5  18.6             18.5
#>  4 2020-12-11 0000   18.5  18.8  18.2  18.7             18.6
#>  5 2020-12-10 0000   18.6  18.9  18.4  18.7             18.7
#>  6 2020-12-09 0000   18.7  19.0  18.7  18.8             18.7
#>  7 2020-12-08 0000   18.7  19.0  18.5  18.9             18.9
#>  8 2020-12-07 0000   18.9  19.4  18.7  19.3             19.3
#>  9 2020-12-04 0000   19.3  19.5  19.0  19.5             19.5
#> 10 2020-12-03 0000   19.5  19.9  19.2  19.8             19.6
#> #  with 7,290 more rows, and 4 more variables: `change amount` <dbl>, `change
#> #   percent` <dbl>, volume <dbl>, transaction <dbl>
cntrade(2, "index")
#> # A tibble: 7,324 x 15
#>    date       code  name  close  high   low  open `yesterday clos
#>    <date>     <chr> <chr> <dbl> <dbl> <dbl> <dbl>            <dbl>
#>  1 2020-12-16 0000  3529. 3542. 3521. 3534.            3530.
#>  2 2020-12-15 0000  3530. 3536. 3510. 3529.            3532.
#>  3 2020-12-14 0000  3532. 3534. 3500. 3511.            3508.
#>  4 2020-12-11 0000  3508. 3546. 3485. 3544.            3536.
#>  5 2020-12-10 0000  3536. 3548. 3520. 3528.            3534.
#>  6 2020-12-09 0000  3534. 3587. 3534. 3581.            3575.
#>  7 2020-12-08 0000  3575. 3594. 3567. 3582.            3581.
#>  8 2020-12-07 0000  3581. 3616. 3579. 3613.            3611.
#>  9 2020-12-04 0000  3611. 3615. 3582. 3602.            3608.
#> 10 2020-12-03 0000  3608. 3619. 3594. 3615.            3616.
#> #  with 7,314 more rows, and 7 more variables: `change amount` <dbl>, `change
#> #   percent` <dbl>, turnover <lgl>, transaction <dbl>, volume <dbl>, `total
#> #   market capitalisation` <lgl>, `traded market value` <lgl>
…
